name: Endpoints
description: ''
endpoints:
  -
    custom: []
    httpMethods:
      - POST
    uri: api/v1/token
    metadata:
      custom: []
      groupName: Endpoints
      groupDescription: ''
      subgroup: ''
      subgroupDescription: ''
      title: 'Get Access Token'
      description: |-
        This API exchanges an API Key and API Secret for a short-lived Access Token.
        ⚠️ Note: This API is publicly accessible and does NOT require a Bearer Token in the header.
      authenticated: false
      deprecated: false
    headers:
      Content-Type: application/json
      Accept: application/json
    urlParameters: []
    cleanUrlParameters: []
    queryParameters: []
    cleanQueryParameters: []
    bodyParameters:
      api_key:
        custom: []
        name: api_key
        description: 'Your API key.'
        required: true
        example: rET8aqQRN5dThpXU4APiXz2U
        type: string
        enumValues: []
        exampleWasSpecified: true
        nullable: false
        deprecated: false
      api_secret:
        custom: []
        name: api_secret
        description: 'Your API secret.'
        required: true
        example: eHldNmoEngCOIxmc8oE4s3D8CXkGQI2Bqo8AzccGwnTd8d0u
        type: string
        enumValues: []
        exampleWasSpecified: true
        nullable: false
        deprecated: false
    cleanBodyParameters:
      api_key: rET8aqQRN5dThpXU4APiXz2U
      api_secret: eHldNmoEngCOIxmc8oE4s3D8CXkGQI2Bqo8AzccGwnTd8d0u
    fileParameters: []
    responses:
      -
        custom: []
        status: 200
        content: |-
          {
          "success": true,
          "message": "Success",
          "data": {
          "accesss_token": "dPllco1OWOUdc5oNl3OcpZ9OkahCPrQfLqjD7r8TRzFMCkXdG4nqIWrtibGd",
          "expires_in": "2026-07-10T15:40:54.838314Z"
          }
          }
        headers: []
        description: ''
    responseFields: []
    auth: []
    controller: null
    method: null
    route: null
  -
    custom: []
    httpMethods:
      - GET
    uri: api/v1/conversions
    metadata:
      custom: []
      groupName: Endpoints
      groupDescription: ''
      subgroup: ''
      subgroupDescription: ''
      title: 'Get Conversions'
      description: |-
        This API exchanges an API Key and API Secret for a short-lived Access Token.
        ⚠️ Note: This API is publicly accessible and does NOT require a Bearer Token in the header.
      authenticated: true
      deprecated: false
    headers:
      Authorization: 'Bearer {your_access_token}'
      Content-Type: application/json
      Accept: application/json
    urlParameters: []
    cleanUrlParameters: []
    queryParameters:
      from_date:
        custom: []
        name: from_date
        description: 'From Date.'
        required: true
        example: '2026-01-01'
        type: string
        enumValues: []
        exampleWasSpecified: true
        nullable: false
        deprecated: false
      to_date:
        custom: []
        name: to_date
        description: 'To Date.'
        required: true
        example: '2026-06-30'
        type: string
        enumValues: []
        exampleWasSpecified: true
        nullable: false
        deprecated: false
      page:
        custom: []
        name: page
        description: 'Page number.'
        required: false
        example: 1.0
        type: number
        enumValues: []
        exampleWasSpecified: true
        nullable: false
        deprecated: false
      limit:
        custom: []
        name: limit
        description: 'Items each page.'
        required: false
        example: 25.0
        type: number
        enumValues: []
        exampleWasSpecified: true
        nullable: false
        deprecated: false
    cleanQueryParameters:
      from_date: '2026-01-01'
      to_date: '2026-06-30'
      page: 1.0
      limit: 25.0
    bodyParameters: []
    cleanBodyParameters: []
    fileParameters: []
    responses:
      -
        custom: []
        status: 200
        content: |-
          {
          "success": true,
          "message": "Success",
          "data": {
              "items": [
                  {
                      "conversion_id": "b7e82fcc5d3c868c233b685975f43f2fa85bfcfc",
                      "order_code": "1100l2426323454",
                      "order_time": "2026-06-01 23:42:12",
                      "price": null,
                      "quantity": 1,
                      "commission": null,
                      "status": "Pending",
                      "product_code": "1100l1077340452",
                      "product_name": "Home-Concert Tickets-Artists T - Z-Vacations",
                      "confirmed_at": null,
                      "paid_at": null,
                      "campaign_id": 44
                  },
                  ...
              ],
              "pagination": {
                  "page": 1,
                  "perPage": 25,
                  "total": 168,
                  "lastPage": 7,
                  "from": 1,
                  "to": 25
               }
             }
          }
        headers: []
        description: ''
    responseFields: []
    auth:
      - headers
      - Authorization
      - 'Bearer at_your_secret_token_123456'
    controller: null
    method: null
    route: null
